[{"line":1,"elements":[{"line":3,"name":"","description":"","type":"background","keyword":"Background","steps":[{"name":"url 'https:\/\/reqres.in'","result":{"duration":17543016,"status":"passed"},"match":{"location":"karate","arguments":[]},"keyword":"*","line":4,"doc_string":{"content_type":"","value":"14:12:24.733 Testsuite executed in Environment","line":4}}]},{"line":6,"name":"Export API response to txt file","description":"","id":"export-api-response-to-txt-file","type":"scenario","keyword":"Scenario","steps":[{"name":"path '\/api\/users'","result":{"duration":104417727,"status":"passed"},"match":{"location":"karate","arguments":[]},"keyword":"Given","line":7},{"name":"param page = '2'","result":{"duration":19647725,"status":"passed"},"match":{"location":"karate","arguments":[]},"keyword":"And","line":8},{"name":"method GET","result":{"duration":3200234072,"status":"passed"},"match":{"location":"karate","arguments":[]},"keyword":"When","line":9,"doc_string":{"content_type":"","value":"14:12:27.244 request:\n1 > GET https:\/\/reqres.in\/api\/users?page=2\n1 > Accept-Encoding: gzip,deflate\n1 > Connection: Keep-Alive\n1 > Host: reqres.in\n1 > User-Agent: Apache-HttpClient\/4.5.11 (Java\/1.8.0_261)\n\n14:12:28.211 response time in milliseconds: 962.57\n1 < 200\n1 < Access-Control-Allow-Origin: *\n1 < Age: 4633\n1 < CF-Cache-Status: HIT\n1 < CF-RAY: 6191a8782efcdd0a-SIN\n1 < Cache-Control: max-age=14400\n1 < Connection: keep-alive\n1 < Content-Type: application\/json; charset=utf-8\n1 < Date: Fri, 29 Jan 2021 08:42:08 GMT\n1 < Etag: W\/\"406-ut0vzoCuidvyMf8arZpMpJ6ZRDw\"\n1 < Expect-CT: max-age=604800, report-uri=\"https:\/\/report-uri.cloudflare.com\/cdn-cgi\/beacon\/expect-ct\"\n1 < NEL: {\"report_to\":\"cf-nel\",\"max_age\":604800}\n1 < Report-To: {\"max_age\":604800,\"endpoints\":[{\"url\":\"https:\\\/\\\/a.nel.cloudflare.com\\\/report?s=o7K%2BZVSeo%2F1DSHBndjVT5ADdTwOAVdIlL1OHdLf2ZvLh3YVApwDXsA2z1eoPugFxJkiBxVBH3GfqGYlCZnShOiyD5bQCSN7NYYo%3D\"}],\"group\":\"cf-nel\"}\n1 < Server: cloudflare\n1 < Set-Cookie: __cfduid=d6f871d7e8565aa277faa7aa6de978a961611909728; expires=Sun, 28-Feb-21 08:42:08 GMT; path=\/; domain=.reqres.in; HttpOnly; SameSite=Lax; Secure\n1 < Transfer-Encoding: chunked\n1 < Vary: Accept-Encoding\n1 < Via: 1.1 vegur\n1 < X-Powered-By: Express\n1 < cf-request-id: 07eee79f1d0000dd0a50beb000000001\n{\"page\":2,\"per_page\":6,\"total\":12,\"total_pages\":2,\"data\":[{\"id\":7,\"email\":\"michael.lawson@reqres.in\",\"first_name\":\"Michael\",\"last_name\":\"Lawson\",\"avatar\":\"https:\/\/reqres.in\/img\/faces\/7-image.jpg\"},{\"id\":8,\"email\":\"lindsay.ferguson@reqres.in\",\"first_name\":\"Lindsay\",\"last_name\":\"Ferguson\",\"avatar\":\"https:\/\/reqres.in\/img\/faces\/8-image.jpg\"},{\"id\":9,\"email\":\"tobias.funke@reqres.in\",\"first_name\":\"Tobias\",\"last_name\":\"Funke\",\"avatar\":\"https:\/\/reqres.in\/img\/faces\/9-image.jpg\"},{\"id\":10,\"email\":\"byron.fields@reqres.in\",\"first_name\":\"Byron\",\"last_name\":\"Fields\",\"avatar\":\"https:\/\/reqres.in\/img\/faces\/10-image.jpg\"},{\"id\":11,\"email\":\"george.edwards@reqres.in\",\"first_name\":\"George\",\"last_name\":\"Edwards\",\"avatar\":\"https:\/\/reqres.in\/img\/faces\/11-image.jpg\"},{\"id\":12,\"email\":\"rachel.howell@reqres.in\",\"first_name\":\"Rachel\",\"last_name\":\"Howell\",\"avatar\":\"https:\/\/reqres.in\/img\/faces\/12-image.jpg\"}],\"support\":{\"url\":\"https:\/\/reqres.in\/#support-heading\",\"text\":\"To keep ReqRes free, contributions towards server costs are appreciated!\"}}","line":9}},{"name":"status 200","result":{"duration":30785,"status":"passed"},"match":{"location":"karate","arguments":[]},"keyword":"Then","line":10},{"name":"def data = response.data","result":{"duration":25498458,"status":"passed"},"match":{"location":"karate","arguments":[]},"keyword":"*","line":12},{"name":"print 'List of UserDetails', data","result":{"duration":10482495,"status":"passed"},"match":{"location":"karate","arguments":[]},"keyword":"Then","line":13,"doc_string":{"content_type":"","value":"14:12:28.254 [print] List of UserDetails [\n  {\n    \"last_name\": \"Lawson\",\n    \"id\": 7,\n    \"avatar\": \"https:\/\/reqres.in\/img\/faces\/7-image.jpg\",\n    \"first_name\": \"Michael\",\n    \"email\": \"michael.lawson@reqres.in\"\n  },\n  {\n    \"last_name\": \"Ferguson\",\n    \"id\": 8,\n    \"avatar\": \"https:\/\/reqres.in\/img\/faces\/8-image.jpg\",\n    \"first_name\": \"Lindsay\",\n    \"email\": \"lindsay.ferguson@reqres.in\"\n  },\n  {\n    \"last_name\": \"Funke\",\n    \"id\": 9,\n    \"avatar\": \"https:\/\/reqres.in\/img\/faces\/9-image.jpg\",\n    \"first_name\": \"Tobias\",\n    \"email\": \"tobias.funke@reqres.in\"\n  },\n  {\n    \"last_name\": \"Fields\",\n    \"id\": 10,\n    \"avatar\": \"https:\/\/reqres.in\/img\/faces\/10-image.jpg\",\n    \"first_name\": \"Byron\",\n    \"email\": \"byron.fields@reqres.in\"\n  },\n  {\n    \"last_name\": \"Edwards\",\n    \"id\": 11,\n    \"avatar\": \"https:\/\/reqres.in\/img\/faces\/11-image.jpg\",\n    \"first_name\": \"George\",\n    \"email\": \"george.edwards@reqres.in\"\n  },\n  {\n    \"last_name\": \"Howell\",\n    \"id\": 12,\n    \"avatar\": \"https:\/\/reqres.in\/img\/faces\/12-image.jpg\",\n    \"first_name\": \"Rachel\",\n    \"email\": \"rachel.howell@reqres.in\"\n  }\n]","line":13}},{"name":"def callFunction =","result":{"duration":13317397,"status":"passed"},"match":{"location":"karate","arguments":[]},"keyword":"*","line":14,"doc_string":{"content_type":"","value":"function(arg){\n for(i=0; i<arg.length; i++){\n  if(arg[i].id == 8){\n   return arg[i]\n  }\n }\n}","line":14}},{"name":"def userDetails = call callFunction data","result":{"duration":56637014,"status":"passed"},"match":{"location":"karate","arguments":[]},"keyword":"*","line":24},{"name":"def javaDemo = Java.type('DemoKarate.feature.writeDataToFile')","result":{"duration":13785650,"status":"passed"},"match":{"location":"karate","arguments":[]},"keyword":"*","line":26},{"name":"def result = javaDemo.writeData(userDetails)","result":{"duration":35640700,"status":"passed"},"match":{"location":"karate","arguments":[]},"keyword":"*","line":27}]}],"name":"DemoKarate\/feature\/DataDrivenWriteFile.feature","description":"DataDriven write data to external file","id":"datadriven-write-data-to-external-file","keyword":"Feature","uri":"DemoKarate\/feature\/DataDrivenWriteFile.feature"}]