[{"line":1,"elements":[{"line":4,"name":"","description":"","type":"background","keyword":"Background","steps":[{"name":"url 'https:\/\/reqres.in'","result":{"duration":3419813,"status":"passed"},"match":{"location":"karate","arguments":[]},"keyword":"*","line":5,"doc_string":{"content_type":"","value":"15:06:29.528 Testsuite executed in Environment","line":5}},{"name":"def requestpayload = read('..\/utils\/Userdetails.json')","result":{"duration":52726264,"status":"passed"},"match":{"location":"karate","arguments":[]},"keyword":"*","line":6},{"name":"header Content-Type = 'application\/json'","result":{"duration":30511520,"status":"passed"},"match":{"location":"karate","arguments":[]},"keyword":"*","line":7}]},{"line":9,"name":"User details","description":"","id":"user-details","type":"scenario","keyword":"Scenario","steps":[{"name":"path '\/api\/users'","result":{"duration":7173399,"status":"passed"},"match":{"location":"karate","arguments":[]},"keyword":"Given","line":11},{"name":"param page = '2'","result":{"duration":2401214,"status":"passed"},"match":{"location":"karate","arguments":[]},"keyword":"And","line":12},{"name":"method GET","result":{"duration":1983819076,"status":"passed"},"match":{"location":"karate","arguments":[]},"keyword":"When","line":13,"doc_string":{"content_type":"","value":"15:06:30.953 request:\n1 > GET https:\/\/reqres.in\/api\/users?page=2\n1 > Accept-Encoding: gzip,deflate\n1 > Connection: Keep-Alive\n1 > Content-Type: application\/json\n1 > Host: reqres.in\n1 > User-Agent: Apache-HttpClient\/4.5.11 (Java\/1.8.0_261)\n\n15:06:31.716 response time in milliseconds: 758.18\n1 < 200\n1 < Access-Control-Allow-Origin: *\n1 < Age: 638\n1 < CF-Cache-Status: HIT\n1 < CF-RAY: 6191f7a86a2ade46-BOM\n1 < Cache-Control: max-age=14400\n1 < Connection: keep-alive\n1 < Content-Type: application\/json; charset=utf-8\n1 < Date: Fri, 29 Jan 2021 09:36:11 GMT\n1 < Etag: W\/\"406-ut0vzoCuidvyMf8arZpMpJ6ZRDw\"\n1 < Expect-CT: max-age=604800, report-uri=\"https:\/\/report-uri.cloudflare.com\/cdn-cgi\/beacon\/expect-ct\"\n1 < NEL: {\"report_to\":\"cf-nel\",\"max_age\":604800}\n1 < Report-To: {\"max_age\":604800,\"endpoints\":[{\"url\":\"https:\\\/\\\/a.nel.cloudflare.com\\\/report?s=qmLewhSA5sEkG0e7q%2FDf8Nc4mAQG5RdWwvBhb7tLQG8I9VTIISBldSpuBl%2BIboEcnbjCfkbMTjYHK%2BYWN%2F6vR7pf%2Ff7R4wgC5XU%3D\"}],\"group\":\"cf-nel\"}\n1 < Server: cloudflare\n1 < Set-Cookie: __cfduid=dda8e79633ab9bd88f484146dbe1937361611912971; expires=Sun, 28-Feb-21 09:36:11 GMT; path=\/; domain=.reqres.in; HttpOnly; SameSite=Lax; Secure\n1 < Transfer-Encoding: chunked\n1 < Vary: Accept-Encoding\n1 < Via: 1.1 vegur\n1 < X-Powered-By: Express\n1 < cf-request-id: 07ef191d420000de46872e1000000001\n{\"page\":2,\"per_page\":6,\"total\":12,\"total_pages\":2,\"data\":[{\"id\":7,\"email\":\"michael.lawson@reqres.in\",\"first_name\":\"Michael\",\"last_name\":\"Lawson\",\"avatar\":\"https:\/\/reqres.in\/img\/faces\/7-image.jpg\"},{\"id\":8,\"email\":\"lindsay.ferguson@reqres.in\",\"first_name\":\"Lindsay\",\"last_name\":\"Ferguson\",\"avatar\":\"https:\/\/reqres.in\/img\/faces\/8-image.jpg\"},{\"id\":9,\"email\":\"tobias.funke@reqres.in\",\"first_name\":\"Tobias\",\"last_name\":\"Funke\",\"avatar\":\"https:\/\/reqres.in\/img\/faces\/9-image.jpg\"},{\"id\":10,\"email\":\"byron.fields@reqres.in\",\"first_name\":\"Byron\",\"last_name\":\"Fields\",\"avatar\":\"https:\/\/reqres.in\/img\/faces\/10-image.jpg\"},{\"id\":11,\"email\":\"george.edwards@reqres.in\",\"first_name\":\"George\",\"last_name\":\"Edwards\",\"avatar\":\"https:\/\/reqres.in\/img\/faces\/11-image.jpg\"},{\"id\":12,\"email\":\"rachel.howell@reqres.in\",\"first_name\":\"Rachel\",\"last_name\":\"Howell\",\"avatar\":\"https:\/\/reqres.in\/img\/faces\/12-image.jpg\"}],\"support\":{\"url\":\"https:\/\/reqres.in\/#support-heading\",\"text\":\"To keep ReqRes free, contributions towards server costs are appreciated!\"}}","line":13}},{"name":"status 200","result":{"duration":19983,"status":"passed"},"match":{"location":"karate","arguments":[]},"keyword":"Then","line":14},{"name":"def data = response.data","result":{"duration":10967491,"status":"passed"},"match":{"location":"karate","arguments":[]},"keyword":"*","line":16},{"name":"print 'List of UserDetails', data","result":{"duration":6814783,"status":"passed"},"match":{"location":"karate","arguments":[]},"keyword":"Then","line":17,"doc_string":{"content_type":"","value":"15:06:31.736 [print] List of UserDetails [\n  {\n    \"last_name\": \"Lawson\",\n    \"id\": 7,\n    \"avatar\": \"https:\/\/reqres.in\/img\/faces\/7-image.jpg\",\n    \"first_name\": \"Michael\",\n    \"email\": \"michael.lawson@reqres.in\"\n  },\n  {\n    \"last_name\": \"Ferguson\",\n    \"id\": 8,\n    \"avatar\": \"https:\/\/reqres.in\/img\/faces\/8-image.jpg\",\n    \"first_name\": \"Lindsay\",\n    \"email\": \"lindsay.ferguson@reqres.in\"\n  },\n  {\n    \"last_name\": \"Funke\",\n    \"id\": 9,\n    \"avatar\": \"https:\/\/reqres.in\/img\/faces\/9-image.jpg\",\n    \"first_name\": \"Tobias\",\n    \"email\": \"tobias.funke@reqres.in\"\n  },\n  {\n    \"last_name\": \"Fields\",\n    \"id\": 10,\n    \"avatar\": \"https:\/\/reqres.in\/img\/faces\/10-image.jpg\",\n    \"first_name\": \"Byron\",\n    \"email\": \"byron.fields@reqres.in\"\n  },\n  {\n    \"last_name\": \"Edwards\",\n    \"id\": 11,\n    \"avatar\": \"https:\/\/reqres.in\/img\/faces\/11-image.jpg\",\n    \"first_name\": \"George\",\n    \"email\": \"george.edwards@reqres.in\"\n  },\n  {\n    \"last_name\": \"Howell\",\n    \"id\": 12,\n    \"avatar\": \"https:\/\/reqres.in\/img\/faces\/12-image.jpg\",\n    \"first_name\": \"Rachel\",\n    \"email\": \"rachel.howell@reqres.in\"\n  }\n]","line":17}},{"name":"def callFunction =","result":{"duration":4696573,"status":"passed"},"match":{"location":"karate","arguments":[]},"keyword":"*","line":18,"doc_string":{"content_type":"","value":"function(arg){\n for(i=0; i<arg.length; i++){\n  if(arg[i].id == 9){\n   return arg[i]\n  }\n }\n}","line":18}},{"name":"def userDetails = call callFunction data","result":{"duration":68762446,"status":"passed"},"match":{"location":"karate","arguments":[]},"keyword":"*","line":28},{"name":"print 'My userDetails', userDetails","result":{"duration":16195506,"status":"passed"},"match":{"location":"karate","arguments":[]},"keyword":"Then","line":29,"doc_string":{"content_type":"","value":"15:06:31.826 [print] My userDetails {\n  \"last_name\": \"Funke\",\n  \"id\": 9,\n  \"avatar\": \"https:\/\/reqres.in\/img\/faces\/9-image.jpg\",\n  \"first_name\": \"Tobias\",\n  \"email\": \"tobias.funke@reqres.in\"\n}","line":29}},{"name":"def firstname1 = userDetails.first_name","result":{"duration":9672909,"status":"passed"},"match":{"location":"karate","arguments":[]},"keyword":"*","line":30},{"name":"print 'My Firstname', firstname1","result":{"duration":9558411,"status":"passed"},"match":{"location":"karate","arguments":[]},"keyword":"Then","line":31,"doc_string":{"content_type":"","value":"15:06:31.847 [print] My Firstname Tobias","line":31}},{"name":"match firstname1 == 'Tobias'","result":{"duration":7098868,"status":"passed"},"match":{"location":"karate","arguments":[]},"keyword":"And","line":32},{"name":"path '\/api\/users'","result":{"duration":286245,"status":"passed"},"match":{"location":"karate","arguments":[]},"keyword":"Given","line":34},{"name":"request requestpayload","result":{"duration":17823,"status":"passed"},"match":{"location":"karate","arguments":[]},"keyword":"And","line":35},{"name":"method POST","result":{"duration":599238589,"status":"passed"},"match":{"location":"karate","arguments":[]},"keyword":"When","line":36,"doc_string":{"content_type":"","value":"15:06:31.860 request:\n2 > POST https:\/\/reqres.in\/api\/users\n2 > Accept-Encoding: gzip,deflate\n2 > Connection: Keep-Alive\n2 > Content-Length: 36\n2 > Content-Type: application\/json; charset=UTF-8\n2 > Cookie: __cfduid=dda8e79633ab9bd88f484146dbe1937361611912971\n2 > Host: reqres.in\n2 > User-Agent: Apache-HttpClient\/4.5.11 (Java\/1.8.0_261)\n{\"name\":\"yogesh\",\"job\":\"Automation\"}\n\n15:06:32.452 response time in milliseconds: 591.08\n2 < 201\n2 < Access-Control-Allow-Origin: *\n2 < CF-Cache-Status: DYNAMIC\n2 < CF-RAY: 6191f7ab5b06de56-BOM\n2 < Connection: keep-alive\n2 < Content-Length: 86\n2 < Content-Type: application\/json; charset=utf-8\n2 < Date: Fri, 29 Jan 2021 09:36:12 GMT\n2 < Etag: W\/\"56-WoK6G6S1\/OJet3S6oUYIVFo\/zPA\"\n2 < Expect-CT: max-age=604800, report-uri=\"https:\/\/report-uri.cloudflare.com\/cdn-cgi\/beacon\/expect-ct\"\n2 < NEL: {\"report_to\":\"cf-nel\",\"max_age\":604800}\n2 < Report-To: {\"max_age\":604800,\"endpoints\":[{\"url\":\"https:\\\/\\\/a.nel.cloudflare.com\\\/report?s=UHTm6ZimKpsrKlJ5mSjYLb0%2F%2Bcod6PM4ukLIcPO1S8T6V0s5iiWt%2FSo82RX52d%2Bs6RhvtSwarRYWI80FFNWTZbiBfp8h3TQoDb0%3D\"}],\"group\":\"cf-nel\"}\n2 < Server: cloudflare\n2 < Via: 1.1 vegur\n2 < X-Powered-By: Express\n2 < cf-request-id: 07ef191f1a0000de56f52e3000000001\n{\"name\":\"yogesh\",\"job\":\"Automation\",\"id\":\"444\",\"createdAt\":\"2021-01-29T09:36:12.293Z\"}","line":36}},{"name":"status 201","result":{"duration":24843,"status":"passed"},"match":{"location":"karate","arguments":[]},"keyword":"Then","line":37},{"name":"print 'Created User details', response","result":{"duration":5579070,"status":"passed"},"match":{"location":"karate","arguments":[]},"keyword":"*","line":38,"doc_string":{"content_type":"","value":"15:06:32.459 [print] Created User details {\n  \"createdAt\": \"2021-01-29T09:36:12.293Z\",\n  \"name\": \"yogesh\",\n  \"id\": \"444\",\n  \"job\": \"Automation\"\n}","line":38}},{"name":"def generatedID = response.id","result":{"duration":5202091,"status":"passed"},"match":{"location":"karate","arguments":[]},"keyword":"*","line":39},{"name":"print 'ID created for New user', generatedID","result":{"duration":11379575,"status":"passed"},"match":{"location":"karate","arguments":[]},"keyword":"*","line":40,"doc_string":{"content_type":"","value":"15:06:32.476 [print] ID created for New user 444","line":40}},{"name":"path '\/api\/users\/'+ generatedID +''","result":{"duration":5434867,"status":"passed"},"match":{"location":"karate","arguments":[]},"keyword":"Given","line":42},{"name":"request {\"name\":\"yogesh\",\"job\":\"AutomationKarateAPI\"}","result":{"duration":145283,"status":"passed"},"match":{"location":"karate","arguments":[]},"keyword":"And","line":43},{"name":"method PUT","result":{"duration":423815447,"status":"passed"},"match":{"location":"karate","arguments":[]},"keyword":"When","line":44,"doc_string":{"content_type":"","value":"15:06:32.485 request:\n3 > PUT https:\/\/reqres.in\/api\/users\/444\n3 > Accept-Encoding: gzip,deflate\n3 > Connection: Keep-Alive\n3 > Content-Length: 45\n3 > Content-Type: application\/json; charset=UTF-8\n3 > Cookie: __cfduid=dda8e79633ab9bd88f484146dbe1937361611912971\n3 > Host: reqres.in\n3 > User-Agent: Apache-HttpClient\/4.5.11 (Java\/1.8.0_261)\n{\"name\":\"yogesh\",\"job\":\"AutomationKarateAPI\"}\n\n15:06:32.905 response time in milliseconds: 419.72\n3 < 200\n3 < Access-Control-Allow-Origin: *\n3 < CF-Cache-Status: DYNAMIC\n3 < CF-RAY: 6191f7ae38c4de0d-BOM\n3 < Connection: keep-alive\n3 < Content-Type: application\/json; charset=utf-8\n3 < Date: Fri, 29 Jan 2021 09:36:12 GMT\n3 < Etag: W\/\"54-88UDjIDiJfh4ssG8hQsStPVAgy0\"\n3 < Expect-CT: max-age=604800, report-uri=\"https:\/\/report-uri.cloudflare.com\/cdn-cgi\/beacon\/expect-ct\"\n3 < NEL: {\"max_age\":604800,\"report_to\":\"cf-nel\"}\n3 < Report-To: {\"group\":\"cf-nel\",\"endpoints\":[{\"url\":\"https:\\\/\\\/a.nel.cloudflare.com\\\/report?s=H7ezW6BfVMPu9hfbY6R5ccnhWCYde6GGHbxI7OvDiJUFs5acHwLuRmS1V78sTaPfFXCTo7IR47M7AnlwJ6%2FsM6M%2FvCSA0YJr5h8%3D\"}],\"max_age\":604800}\n3 < Server: cloudflare\n3 < Transfer-Encoding: chunked\n3 < Vary: Accept-Encoding\n3 < Via: 1.1 vegur\n3 < X-Powered-By: Express\n3 < cf-request-id: 07ef1920e80000de0da5275000000001\n{\"name\":\"yogesh\",\"job\":\"AutomationKarateAPI\",\"updatedAt\":\"2021-01-29T09:36:12.762Z\"}","line":44}},{"name":"status 200","result":{"duration":13502,"status":"passed"},"match":{"location":"karate","arguments":[]},"keyword":"Then","line":45},{"name":"print 'Updated Job details', response","result":{"duration":4901264,"status":"passed"},"match":{"location":"karate","arguments":[]},"keyword":"Then","line":46,"doc_string":{"content_type":"","value":"15:06:32.911 [print] Updated Job details {\n  \"name\": \"yogesh\",\n  \"job\": \"AutomationKarateAPI\",\n  \"updatedAt\": \"2021-01-29T09:36:12.762Z\"\n}","line":46}},{"name":"def putResponse = response","result":{"duration":22144,"status":"passed"},"match":{"location":"karate","arguments":[]},"keyword":"*","line":47},{"name":"path '\/api\/users\/'+ generatedID +''","result":{"duration":301907,"status":"passed"},"match":{"location":"karate","arguments":[]},"keyword":"Given","line":49},{"name":"request putResponse","result":{"duration":16203,"status":"passed"},"match":{"location":"karate","arguments":[]},"keyword":"And","line":50},{"name":"method DELETE","result":{"duration":415339365,"status":"passed"},"match":{"location":"karate","arguments":[]},"keyword":"When","line":51,"doc_string":{"content_type":"","value":"15:06:32.915 request:\n4 > DELETE https:\/\/reqres.in\/api\/users\/444\n4 > Accept-Encoding: gzip,deflate\n4 > Connection: Keep-Alive\n4 > Content-Length: 84\n4 > Content-Type: application\/json; charset=UTF-8\n4 > Cookie: __cfduid=dda8e79633ab9bd88f484146dbe1937361611912971\n4 > Host: reqres.in\n4 > User-Agent: Apache-HttpClient\/4.5.11 (Java\/1.8.0_261)\n{\"name\":\"yogesh\",\"job\":\"AutomationKarateAPI\",\"updatedAt\":\"2021-01-29T09:36:12.762Z\"}\n\n15:06:33.327 response time in milliseconds: 411.22\n4 < 204\n4 < Access-Control-Allow-Origin: *\n4 < CF-Cache-Status: DYNAMIC\n4 < CF-RAY: 6191f7b11f55de46-BOM\n4 < Connection: keep-alive\n4 < Content-Length: 0\n4 < Date: Fri, 29 Jan 2021 09:36:13 GMT\n4 < Etag: W\/\"2-vyGp6PvFo4RvsFtPoIWeCReyIC8\"\n4 < Expect-CT: max-age=604800, report-uri=\"https:\/\/report-uri.cloudflare.com\/cdn-cgi\/beacon\/expect-ct\"\n4 < NEL: {\"report_to\":\"cf-nel\",\"max_age\":604800}\n4 < Report-To: {\"max_age\":604800,\"endpoints\":[{\"url\":\"https:\\\/\\\/a.nel.cloudflare.com\\\/report?s=IUKGY94FhQTxM%2F0b0xn1A4WiybfFgQi7ebYH0B8qNi7MqZHLAD1mNpEgSBT%2FVKHSbVMRkCOIZCKIWs2ouTJROV1M5CFbZRh1YZo%3D\"}],\"group\":\"cf-nel\"}\n4 < Server: cloudflare\n4 < Via: 1.1 vegur\n4 < X-Powered-By: Express\n4 < cf-request-id: 07ef1922ae0000de4659b81000000001","line":51}},{"name":"status 204","result":{"duration":13502,"status":"passed"},"match":{"location":"karate","arguments":[]},"keyword":"Then","line":52}]}],"name":"DemoKarate\/feature\/e2eTestFlow.feature","description":"E2E test flow of user details","id":"e2e-test-flow-of-user-details","keyword":"Feature","uri":"DemoKarate\/feature\/e2eTestFlow.feature"}]